<?xml version="1.0" standalone="no"?>
<!DOCTYPE svg PUBLIC "-//W3C//DTD SVG 1.1//EN" "http://www.w3.org/Graphics/SVG/1.1/DTD/svg11.dtd" >
<svg xmlns="http://www.w3.org/2000/svg">
<metadata>Generated by IcoMoon</metadata>
<defs>
<font id="icomoon" horiz-adv-x="1024">
<font-face units-per-em="1024" ascent="960" descent="-64" />
<missing-glyph horiz-adv-x="1024" />
<glyph unicode="&#x20;" horiz-adv-x="512" d="" />
<glyph unicode="&#xe900;" glyph-name="question-circle" horiz-adv-x="878" d="M512 164.571v109.714c0 10.286-8 18.286-18.286 18.286h-109.714c-10.286 0-18.286-8-18.286-18.286v-109.714c0-10.286 8-18.286 18.286-18.286h109.714c10.286 0 18.286 8 18.286 18.286zM658.286 548.571c0 104.571-109.714 182.857-208 182.857-93.143 0-162.857-40-212-121.714-5.143-8-2.857-18.286 4.571-24l75.429-57.143c2.857-2.286 6.857-3.429 10.857-3.429 5.143 0 10.857 2.286 14.286 6.857 26.857 34.286 38.286 44.571 49.143 52.571 9.714 6.857 28.571 13.714 49.143 13.714 36.571 0 70.286-23.429 70.286-48.571 0-29.714-15.429-44.571-50.286-60.571-40.571-18.286-96-65.714-96-121.143v-20.571c0-10.286 8-18.286 18.286-18.286h109.714c10.286 0 18.286 8 18.286 18.286v0c0 13.143 16.571 41.143 43.429 56.571 43.429 24.571 102.857 57.714 102.857 144.571zM877.714 438.857c0-242.286-196.571-438.857-438.857-438.857s-438.857 196.571-438.857 438.857 196.571 438.857 438.857 438.857 438.857-196.571 438.857-438.857z" />
<glyph unicode="&#xe901;" glyph-name="home" d="M512 810.667c0 0-263.936-227.84-411.435-351.232-8.661-7.851-15.232-19.285-15.232-32.768 0-23.595 19.072-42.667 42.667-42.667h85.333v-298.667c0-23.595 19.072-42.667 42.667-42.667h128c23.595 0 42.667 19.115 42.667 42.667v170.667h170.667v-170.667c0-23.552 19.072-42.667 42.667-42.667h128c23.595 0 42.667 19.072 42.667 42.667v298.667h85.333c23.595 0 42.667 19.072 42.667 42.667 0 13.483-6.571 24.917-16.341 32.768-146.475 123.392-410.325 351.232-410.325 351.232z" />
<glyph unicode="&#xe902;" glyph-name="envelope, email, mail, letter, contact" d="M512.48 356.448l-130.304 106.976-283.584-334.816h828.032l-283.616 338.144-130.528-110.304zM957.632 767.392h-890.080l445.056-374.336 445.024 374.336zM662.56 483.616l297.312-354.688v606.464l-297.312-251.776zM64.128 735.392v-606.464l297.312 354.688-297.312 251.776z" />
<glyph unicode="&#xe903;" glyph-name="graduation-cap, mortar-board" horiz-adv-x="1317" d="M1013.714 473.143l10.286-180.571c4.571-80.571-164-146.286-365.714-146.286s-370.286 65.714-365.714 146.286l10.286 180.571 328-103.429c9.143-2.857 18.286-4 27.429-4s18.286 1.143 27.429 4zM1316.571 658.286c0-8-5.143-14.857-12.571-17.714l-640-201.143c-2.286-0.571-4-0.571-5.714-0.571s-3.429 0-5.714 0.571l-372.571 117.714c-32.571-25.714-55.429-88.571-60-165.714 21.714-12.571 36-35.429 36-62.286 0-25.714-13.143-48-33.143-61.143l33.143-247.429c0.571-5.143-1.143-10.286-4.571-14.286s-8.571-6.286-13.714-6.286h-109.714c-5.143 0-10.286 2.286-13.714 6.286s-5.143 9.143-4.571 14.286l33.143 247.429c-20 13.143-33.143 35.429-33.143 61.143 0 27.429 15.429 50.857 37.143 63.429 3.429 66.857 20.571 138.857 56 188.571l-190.286 59.429c-7.429 2.857-12.571 9.714-12.571 17.714s5.143 14.857 12.571 17.714l640 201.143c2.286 0.571 4 0.571 5.714 0.571s3.429 0 5.714-0.571l640-201.143c7.429-2.857 12.571-9.714 12.571-17.714z" />
<glyph unicode="&#xe904;" glyph-name="search, zoom, magnifier, magnifying-glass" d="M1014.88 33.504c12.192-12.192 12.192-31.968 0-44.192l-44.192-44.192c-12.224-12.192-32-12.192-44.192 0l-309.376 309.376c-3.36 3.36-5.6 7.328-7.104 11.552-63.456-46.368-141.376-74.048-226.016-74.048-212.064 0-384 171.936-384 384s171.936 384 384 384c212.064 0 384-171.936 384-384 0-84.64-27.68-162.56-74.048-226.016 4.224-1.504 8.192-3.712 11.552-7.104l309.376-309.376zM384 832c-141.376 0-256-114.624-256-256s114.624-256 256-256 256 114.624 256 256c0 141.376-114.624 256-256 256z" />
<glyph unicode="&#xe905;" glyph-name="calculator, math, sum" d="M768 800h-512c-17.696 0-32-14.304-32-32v-672c0-17.664 14.304-32 32-32h512c17.664 0 32 14.336 32 32v672c0 17.696-14.336 32-32 32zM288 480h64v-64h-64v64zM288 384h64v-64h-64v64zM288 288h64v-64h-64v64zM448 128h-160v64h160v-64zM448 224h-64v64h64v-64zM448 320h-64v64h64v-64zM448 416h-64v64h64v-64zM544 128h-64v64h64v-64zM544 224h-64v64h64v-64zM544 320h-64v64h64v-64zM544 416h-64v64h64v-64zM640 128h-64v64h64v-64zM640 224h-64v64h64v-64zM640 320h-64v64h64v-64zM640 416h-64v64h64v-64zM736 128h-64v160h64v-160zM736 320h-64v64h64v-64zM736 416h-64v64h64v-64zM736 544h-448v192h448v-192z" />
<glyph unicode="&#xe906;" glyph-name="heart, love, favorite, like" d="M736 896c-76.928 0-138.592-27.616-192.96-82.016-0.032-0.032-0.064-0.064-0.096-0.096h-0.032l-30.912-38.944-30.912 36.576c-0.032 0.032-0.064 0.064-0.096 0.096h-0.032c-54.4 54.432-116.032 84.384-192.96 84.384s-149.248-29.952-203.648-84.352c-54.368-54.4-84.352-126.72-84.352-203.648 0-76.864 29.92-149.184 84.256-203.552l382.304-385.504c12-12.128 28.384-18.944 45.44-18.944s33.44 6.816 45.44 18.944l382.272 385.504c54.336 54.368 84.288 126.656 84.288 203.552 0 76.928-29.984 149.248-84.352 203.648-54.4 54.4-126.72 84.352-203.648 84.352v0z" />
<glyph unicode="&#xe907;" glyph-name="thumbs-up" d="M698.778 595.866c-6.81 18.176 181.197 186.061 71.578 322.099-25.651 31.795-112.691-152.32-236.288-235.674-68.198-45.978-226.867-143.872-226.867-197.99v-350.31c0-65.075 251.597-133.99 442.778-133.99 70.093 0 171.622 439.091 171.622 508.826 0 70.042-216.115 68.813-222.822 87.040zM256 591.002c-33.69 0-153.6-20.48-153.6-159.898v-248.218c0-139.315 119.91-154.675 153.6-154.675 33.638 0-51.2 29.286-51.2 115.712v326.298c0 90.522 84.838 120.781 51.2 120.781z" />
<glyph unicode="&#xe908;" glyph-name="time, clock" d="M512 848c-229.792 0-416-186.24-416-416s186.208-416 416-416c229.728 0 416 186.24 416 416s-186.24 416-416 416zM508.64 95.136c-185.568 0-336 150.432-336 336s150.432 336 336 336c185.536 0 336-150.432 336-336s-150.464-336-336-336zM605.76 411.808h-95.36v161.024c0 17.472-14.176 31.68-31.648 31.68-17.504 0-31.68-14.176-31.68-31.68v-192.672c0-17.504 14.176-31.648 31.68-31.648h127.008c17.504 0 31.68 14.144 31.68 31.648 0 17.472-14.176 31.648-31.68 31.648z" />
<glyph unicode="&#xe909;" glyph-name="social-facebook" d="M573.333 549.333h184v-184h-184v-429.333h-184v429.333h-184v184h184v76.973c0 72.925 22.938 165.048 68.57 215.402 45.632 50.477 102.61 75.624 170.874 75.624h128.554v-184h-128.8c-30.544 0-55.2-24.656-55.2-55.138v-128.861z" />
<glyph unicode="&#xe90a;" glyph-name="keyboard_arrow_right" d="M307.254 168.087l277.669 277.669-277.669 277.669 85 85 362.669-362.669-362.669-362.669z" />
<glyph unicode="&#xe90b;" glyph-name="keyboard_arrow_left" d="M718.832 180.167l-85-85-362.669 362.669 362.669 362.669 85-85-277.669-277.669z" />
<glyph unicode="&#xe9c1;" glyph-name="cloud" d="M1024 302.458c0 82.090-56.678 150.9-132.996 169.48-3.242 128.7-108.458 232.062-237.862 232.062-75.792 0-143.266-35.494-186.854-90.732-24.442 31.598-62.69 51.96-105.708 51.96-73.81 0-133.642-59.874-133.642-133.722 0-6.436 0.48-12.76 1.364-18.954-11.222 2.024-22.766 3.138-34.57 3.138-106.998 0.002-193.732-86.786-193.732-193.842 0-107.062 86.734-193.848 193.73-193.848l656.262 0.012c96.138 0.184 174.008 78.212 174.008 174.446z" />
<glyph unicode="&#xea3a;" glyph-name="arrow-up2" d="M877.254 557.254l-320 320c-24.992 24.994-65.514 24.994-90.508 0l-320-320c-24.994-24.994-24.994-65.516 0-90.51 24.994-24.996 65.516-24.996 90.51 0l210.744 210.746v-613.49c0-35.346 28.654-64 64-64s64 28.654 64 64v613.49l210.746-210.746c12.496-12.496 28.876-18.744 45.254-18.744s32.758 6.248 45.254 18.746c24.994 24.994 24.994 65.514 0 90.508z" />
<glyph unicode="&#xea96;" glyph-name="twitter" d="M1024 733.6c-37.6-16.8-78.2-28-120.6-33 43.4 26 76.6 67.2 92.4 116.2-40.6-24-85.6-41.6-133.4-51-38.4 40.8-93 66.2-153.4 66.2-116 0-210-94-210-210 0-16.4 1.8-32.4 5.4-47.8-174.6 8.8-329.4 92.4-433 219.6-18-31-28.4-67.2-28.4-105.6 0-72.8 37-137.2 93.4-174.8-34.4 1-66.8 10.6-95.2 26.2 0-0.8 0-1.8 0-2.6 0-101.8 72.4-186.8 168.6-206-17.6-4.8-36.2-7.4-55.4-7.4-13.6 0-26.6 1.4-39.6 3.8 26.8-83.4 104.4-144.2 196.2-146-72-56.4-162.4-90-261-90-17 0-33.6 1-50.2 3 93.2-59.8 203.6-94.4 322.2-94.4 386.4 0 597.8 320.2 597.8 597.8 0 9.2-0.2 18.2-0.6 27.2 41 29.4 76.6 66.4 104.8 108.6z" />
</font></defs></svg>